{
  "name": "MunerisCoreKitDev",
  "version": "5.0.0",
  "summary": "The Muneris Core Framework.",
  "description": "Muneris is a middleware platform for mobile applications, providing such services as multi-store in-app billing abstractions, ads mediation, game services, 3rd-party SDKs abstractions, etc.",
  "homepage": "https://www.muneris.io",
  "license": {
    "type": "Commercial",
    "text": "BY DOWNLOADING THE MUNERIS SDK FRAMEWORK, YOU ARE AGREEING TO THE TERMS AND CONDITIONS OF THE MUNERIS SDK LICENSE AGREEMENT LOCATED AT https://www.muneris.io/legal/#sdk-license. IF YOU DO NOT AGREE TO THE TERMS AND CONDITIONS OF THE MUNERIS SDK LICENSE AGREEMENT, YOU ARE NOT AUTHORIZED TO AND YOU MAY NOT DOWNLOAD THE MUNERIS SDK FRAMEWORK."
  },
  "authors": {
    "Muneris": "support@muneris.io"
  },
  "platforms": {
    "ios": "7.0"
  },
  "source": {
    "http": "https://munerissdk:Mdev1234@team-repository-cocoapods.muneris.io/ios/5.0.0/MunerisCoreKitDev.zip?cache=bv50regu"
  },
  "frameworks": [
    "CoreTelephony",
    "CFNetwork",
    "CoreGraphics",
    "Foundation",
    "MobileCoreServices",
    "QuartzCore",
    "Security",
    "SystemConfiguration",
    "UIKit"
  ],
  "weak_frameworks": [
    "Accounts",
    "CoreMotion",
    "PassKit",
    "Social",
    "WebKit",
    "EventKit",
    "EventKitUI",
    "MessageUI"
  ],
  "libraries": [
    "sqlite3",
    "z"
  ],
  "xcconfig": {
    "CLANG_ALLOW_NON_MODULAR_INCLUDES_IN_FRAMEWORK_MODULES": "YES"
  },
  "ios": {
    "preserve_paths": "MunerisCoreKitDev.framework",
    "public_header_files": "MunerisCoreKitDev.framework/Versions/A/Headers/*.h",
    "vendored_frameworks": "MunerisCoreKitDev.framework"
  }
}