{
  "name": "MunerisAdmobDev",
  "version": "5.0.0",
  "summary": "A short description of MunerisAdmob.",
  "license": "REPLACE THIS FIELD BEFORE RELEASE",
  "authors": {
    "Muneris": "support@muneris.io"
  },
  "homepage": "https://www.muneris.io",
  "description": "                   A longer description of MunerisAdmob in Markdown format.\n",
  "frameworks": "Foundation",
  "requires_arc": false,
  "source": {
    "http": "https://munerissdk:Mdev1234@team-repository-cocoapods.muneris.io/ios/5.0.0/MunerisAdmobDev-5.0.0.zip"
  },
  "platforms": {
    "ios": "7.0"
  },
  "ios": {
    "preserve_paths": "MunerisAdmobDev.framework",
    "public_header_files": "MunerisAdmobDev.framework/Versions/A/Headers/*.h",
    "resources": null,
    "vendored_frameworks": "MunerisAdmobDev.framework"
  },
  "dependencies": {
    "MunerisCoreDev": [
      ">= 0"
    ],
    "MunerisAppEventDev": [
      ">= 0"
    ],
    "MunerisTakeoverDev": [
      ">= 0"
    ],
    "MunerisBannerAdDev": [
      ">= 0"
    ],
    "Vendor-Google-Mobile-Ads-SDK": [
      "7.3.1"
    ]
  },
  "libraries": null
}
