{
    "name": "MunerisMessagingBridge", 
    "version": "5.9.0-SNAPSHOT", 
    "summary": "MunerisMessagingKit Unity Bridge", 
    "description": "Muneris is a middleware platform for mobile applications, providing such services as multi-store in-app billing abstractions, ads mediation, game services, 3rd-party SDKs abstractions, etc.", 
    "license": {
        "type": "Commercial", 
        "text": "BY DOWNLOADING THE MUNERIS SDK FRAMEWORK, YOU ARE AGREEING TO THE TERMS AND CONDITIONS OF THE MUNERIS SDK LICENSE AGREEMENT LOCATED AT https://www.muneris.io/legal/#sdk-license. IF YOU DO NOT AGREE TO THE TERMS AND CONDITIONS OF THE MUNERIS SDK LICENSE AGREEMENT, YOU ARE NOT AUTHORIZED TO AND YOU MAY NOT DOWNLOAD THE MUNERIS SDK FRAMEWORK."
    }, 
    "homepage": "https://www.muneris.io", 
    "authors": {
        "Muneris": "support@muneris.io"
    }, 
    "source": {
        "http": "https://munerissdk:Mdev1234@team-repository-cocoapods.muneris.io/ios/5.9.0-SNAPSHOT/MunerisMessagingBridge.zip?t=1503454558"
    }, 
    "platforms": {
        "ios": 7.0
    }, 
    "source_files": [
        "**/*.{h,m,mm,cpp,hpp}"
    ], 
    "public_header_files": [
        "**/*.{h,hpp}"
    ], 
    "header_mappings_dir": ".", 
    "requires_arc": false, 
    "frameworks": "Foundation", 
    "xcconfig": {
        "GCC_ENABLE_CPP_EXCEPTIONS": "YES", 
        "GCC_ENABLE_CPP_RTTI": "YES", 
        "CLANG_CXX_LANGUAGE_STANDARD": "c++0x", 
        "CLANG_CXX_LIBRARY": "libc++", 
        "GCC_PREPROCESSOR_DEFINITIONS": "MUNERIS_UNITY=1"
    }, 
    "compiler_flags": "-Wno-nullability-completeness", 
    "dependencies": {
        "MunerisCoreBridge": [
            "5.9.0-SNAPSHOT"
        ], 
        "MunerisMessagingKit": [
            "5.9.0-SNAPSHOT"
        ]
    }, 
    "libraries": [
        "c++"
    ]
}