{
  "name": "MunerisTrialpaySDKDev",
  "version": "5.0.0",
  "summary": "A short description of MunerisTrialpay.",
  "license": "REPLACE THIS FIELD BEFORE RELEASE",
  "authors": {
    "Muneris": "support@muneris.io"
  },
  "homepage": "https://www.muneris.io",
  "description": "                   A longer description of MunerisTrialpay in Markdown format.\n",
  "frameworks": "Foundation",
  "requires_arc": false,
  "source": {
    "http": "https://munerissdk:Mdev1234@team-repository-cocoapods.muneris.io/ios/5.0.0/MunerisTrialpaySDKDev-5.0.0.zip?cache=7io6v2qp"
  },
  "platforms": {
    "ios": "7.0"
  },
  "ios": {
    "preserve_paths": [
      "MunerisTrialpaySDKDev.framework"
    ],
    "public_header_files": [
      "MunerisTrialpaySDKDev.framework/Versions/A/Headers/*.h"
    ],
    "resources": null,
    "vendored_frameworks": [
      "MunerisTrialpaySDKDev.framework"
    ]
  },
  "dependencies": {
    "MunerisCoreSDKDev": [
      ">= 0"
    ],
    "MunerisAppEventSDKDev": [
      ">= 0"
    ],
    "MunerisTakeoverSDKDev": [
      ">= 0"
    ],
    "MunerisBannerAdSDKDev": [
      ">= 0"
    ],
    "TrialPay": [
      "2.2014410"
    ]
  }
}
