{
  "name": "MunerisAdmobUnityAdsKit",
  "version": "5.8.0-SNAPSHOT",
  "summary": "The Muneris Admob UnityAds Framework.",
  "description": "Muneris is a middleware platform for mobile applications, providing such services as multi-store in-app billing abstractions, ads mediation, game services, 3rd-party SDKs abstractions, etc.",
  "homepage": "https://www.muneris.io",
  "license": {
    "type": "Commercial",
    "text": "BY DOWNLOADING THE MUNERIS SDK FRAMEWORK, YOU ARE AGREEING TO THE TERMS AND CONDITIONS OF THE MUNERIS SDK LICENSE AGREEMENT LOCATED AT https://www.muneris.io/legal/#sdk-license. IF YOU DO NOT AGREE TO THE TERMS AND CONDITIONS OF THE MUNERIS SDK LICENSE AGREEMENT, YOU ARE NOT AUTHORIZED TO AND YOU MAY NOT DOWNLOAD THE MUNERIS SDK FRAMEWORK."
  },
  "authors": {
    "Muneris": "support@muneris.io"
  },
  "platforms": {
    "ios": "7.0"
  },
  "source": {
    "http": "https://munerissdk:Mdev1234@team-repository-cocoapods.muneris.io/ios/5.8.0-SNAPSHOT/MunerisAdmobUnityAdsKit-5.8.0-SNAPSHOT.zip?cache=sio490nf"
  },
  "dependencies": {
    "Vendor-Admob-UnityAds": [
      "2.0.4.0"
    ],
    "Vendor-UnityAds": [
      "2.0.4"
    ],
    "MunerisAdmobKit": [
      "5.8.0-SNAPSHOT"
    ]
  },
  "compiler_flags": "-Werror=objc-method-access -DMUNERIS_VERSION=\\\"5.8.0-SNAPSHOT\\\"",
  "ios": {
    "preserve_paths": "MunerisAdmobUnityAdsKit.framework",
    "vendored_frameworks": "MunerisAdmobUnityAdsKit.framework"
  }
}