{
  "name": "MunerisFyberSDKDev",
  "version": "5.0.0",
  "summary": "A short description of MunerisFyber.",
  "license": "REPLACE THIS FIELD BEFORE RELEASE",
  "authors": {
    "Muneris": "support@muneris.io"
  },
  "homepage": "https://www.muneris.io",
  "description": "                   A longer description of MunerisFyber in Markdown format.\n",
  "frameworks": "Foundation",
  "requires_arc": false,
  "source": {
    "http": "https://munerissdk:Mdev1234@team-repository-cocoapods.muneris.io/ios/5.0.0/MunerisFyberSDKDev-5.0.0.zip?cache=8ffqkixf"
  },
  "platforms": {
    "ios": "7.0"
  },
  "ios": {
    "preserve_paths": [
      "MunerisFyberSDKDev.framework"
    ],
    "public_header_files": [
      "MunerisFyberSDKDev.framework/Versions/A/Headers/*.h"
    ],
    "resources": null,
    "vendored_frameworks": [
      "MunerisFyberSDKDev.framework"
    ]
  },
  "dependencies": {
    "MunerisCoreSDKDev": [
      ">= 0"
    ],
    "MunerisTakeoverSDKDev": [
      ">= 0"
    ],
    "FyberSDK": [
      "7.2.2"
    ]
  }
}
