{
  "name": "MunerisAppsFlyerSDKDev",
  "version": "5.0.0",
  "summary": "A short description of MunerisAppsFlyer.",
  "license": "REPLACE THIS FIELD BEFORE RELEASE",
  "authors": {
    "Muneris": "support@muneris.io"
  },
  "homepage": "https://www.muneris.io",
  "description": "                   A longer description of MunerisAppsFlyer in Markdown format.\n",
  "frameworks": "Foundation",
  "requires_arc": false,
  "source": {
    "http": "https://munerissdk:Mdev1234@team-repository-cocoapods.muneris.io/ios/5.0.0/MunerisAppsFlyerSDKDev-5.0.0.zip?cache=kxpjqjpp"
  },
  "platforms": {
    "ios": "7.0"
  },
  "ios": {
    "preserve_paths": [
      "MunerisAppsFlyerSDKDev.framework"
    ],
    "public_header_files": [
      "MunerisAppsFlyerSDKDev.framework/Versions/A/Headers/*.h"
    ],
    "resources": null,
    "vendored_frameworks": [
      "MunerisAppsFlyerSDKDev.framework"
    ]
  },
  "dependencies": {
    "MunerisCoreSDKDev": [
      ">= 0"
    ],
    "MunerisAppEventSDKDev": [
      ">= 0"
    ],
    "MunerisTakeoverSDKDev": [
      ">= 0"
    ],
    "MunerisBannerAdSDKDev": [
      ">= 0"
    ],
    "AppsFlyer-SDK": [
      "2.5.3.16"
    ]
  }
}
