{
  "name": "MunerisHeyzapHyprMXKit",
  "version": "5.9.1-SNAPSHOT",
  "summary": "The Muneris Heyzap HyprMX Framework.",
  "description": "Muneris is a middleware platform for mobile applications, providing such services as multi-store in-app billing abstractions, ads mediation, game services, 3rd-party SDKs abstractions, etc.",
  "homepage": "https://www.muneris.io",
  "license": {
    "type": "Commercial",
    "text": "BY DOWNLOADING THE MUNERIS SDK FRAMEWORK, YOU ARE AGREEING TO THE TERMS AND CONDITIONS OF THE MUNERIS SDK LICENSE AGREEMENT LOCATED AT https://www.muneris.io/legal/#sdk-license. IF YOU DO NOT AGREE TO THE TERMS AND CONDITIONS OF THE MUNERIS SDK LICENSE AGREEMENT, YOU ARE NOT AUTHORIZED TO AND YOU MAY NOT DOWNLOAD THE MUNERIS SDK FRAMEWORK."
  },
  "authors": {
    "Muneris": "support@muneris.io"
  },
  "platforms": {
    "ios": "8.0"
  },
  "source": {
    "http": "https://munerissdk:Mdev1234@team-repository-cocoapods.muneris.io/ios/5.9.1-SNAPSHOT/MunerisHeyzapHyprMXKit-5.9.1-SNAPSHOT.zip?cache=cw7ncfb5"
  },
  "frameworks": "SafariServices",
  "dependencies": {
    "Vendor-Heyzap-HyprMX": [
      "93"
    ],
    "MunerisHeyzapKit": [
      "5.9.1-SNAPSHOT"
    ]
  },
  "compiler_flags": "-Werror=objc-method-access -DMUNERIS_VERSION=\\\"5.9.1-SNAPSHOT\\\"",
  "ios": {
    "preserve_paths": "MunerisHeyzapHyprMXKit.framework",
    "vendored_frameworks": "MunerisHeyzapHyprMXKit.framework"
  }
}