{
  "name": "MunerisAdcolonyDev",
  "version": "5.0.0",
  "summary": "A short description of MunerisAdcolony.",
  "license": "REPLACE THIS FIELD BEFORE RELEASE",
  "authors": {
    "Muneris": "support@muneris.io"
  },
  "homepage": "https://www.muneris.io",
  "description": "                   A longer description of MunerisAdcolony in Markdown format.\n",
  "frameworks": [
    "Foundation",
    "UIKit"
  ],
  "requires_arc": false,
  "source": {
    "http": "https://munerissdk:Mdev1234@team-repository-cocoapods.muneris.io/ios/5.0.0/MunerisAdcolonyDev-5.0.0.zip"
  },
  "platforms": {
    "ios": "7.0"
  },
  "ios": {
    "preserve_paths": "MunerisAdcolonyDev.framework",
    "public_header_files": "MunerisAdcolonyDev.framework/Versions/A/Headers/*.h",
    "resources": null,
    "vendored_frameworks": "MunerisAdcolonyDev.framework"
  },
  "dependencies": {
    "MunerisCoreDev": [
      ">= 0"
    ],
    "MunerisAppEventDev": [
      ">= 0"
    ],
    "MunerisTakeoverDev": [
      ">= 0"
    ],
    "MunerisBannerAdDev": [
      ">= 0"
    ],
    "AdColony": [
      "2.5.1"
    ]
  },
  "libraries": null
}
