{
  "name": "MunerisBranchKit",
  "version": "5.6.0-SNAPSHOT",
  "summary": "The Muneris Branch Framework.",
  "description": "Muneris is a middleware platform for mobile applications, providing such services as multi-store in-app billing abstractions, ads mediation, game services, 3rd-party SDKs abstractions, etc.",
  "homepage": "https://www.muneris.io",
  "license": {
    "type": "Commercial",
    "text": "BY DOWNLOADING THE MUNERIS SDK FRAMEWORK, YOU ARE AGREEING TO THE TERMS AND CONDITIONS OF THE MUNERIS SDK LICENSE AGREEMENT LOCATED AT https://www.muneris.io/legal/#sdk-license. IF YOU DO NOT AGREE TO THE TERMS AND CONDITIONS OF THE MUNERIS SDK LICENSE AGREEMENT, YOU ARE NOT AUTHORIZED TO AND YOU MAY NOT DOWNLOAD THE MUNERIS SDK FRAMEWORK."
  },
  "authors": {
    "Muneris": "support@muneris.io"
  },
  "source": {
    "http": "https://munerissdk:Mdev1234@team-repository-cocoapods.muneris.io/ios/5.6.0-SNAPSHOT/MunerisBranchKit-5.6.0-SNAPSHOT.zip?cache=9w7zu2u7"
  },
  "platforms": {
    "ios": "7.0"
  },
  "requires_arc": true,
  "dependencies": {
    "MunerisCoreKit": [
      "5.6.0-SNAPSHOT"
    ],
    "Branch": [
      "0.12.11"
    ]
  },
  "compiler_flags": "-Werror=objc-method-access -DMUNERIS_VERSION=\\\"5.6.0-SNAPSHOT\\\"",
  "ios": {
    "preserve_paths": "MunerisBranchKit.framework",
    "vendored_frameworks": "MunerisBranchKit.framework"
  }
}