{
  "name": "MunerisSinaWeiboSDKDev",
  "version": "5.0.0",
  "summary": "A short description of MunerisSinaWeibo.",
  "license": "REPLACE THIS FIELD BEFORE RELEASE",
  "authors": {
    "Muneris": "support@muneris.io"
  },
  "homepage": "https://www.muneris.io",
  "description": "                   A longer description of MunerisSinaWeibo in Markdown format.\n",
  "frameworks": "Foundation",
  "requires_arc": false,
  "source": {
    "http": "https://munerissdk:Mdev1234@team-repository-cocoapods.muneris.io/ios/5.0.0/MunerisSinaWeiboSDKDev-5.0.0.zip?cache=7ltk2mzs"
  },
  "platforms": {
    "ios": "7.0"
  },
  "ios": {
    "preserve_paths": [
      "MunerisSinaWeiboSDKDev.framework"
    ],
    "public_header_files": [
      "MunerisSinaWeiboSDKDev.framework/Versions/A/Headers/*.h"
    ],
    "resources": null,
    "vendored_frameworks": [
      "MunerisSinaWeiboSDKDev.framework"
    ]
  },
  "dependencies": {
    "MunerisCoreSDKDev": [
      ">= 0"
    ],
    "weibo-ios-sdk": [
      "2.5.1"
    ]
  }
}
