{
  "name": "MunerisAppleIapDev",
  "version": "5.0.0",
  "summary": "A short description of MunerisAppleIap.",
  "license": "REPLACE THIS FIELD BEFORE RELEASE",
  "authors": {
    "Muneris": "support@muneris.io"
  },
  "homepage": "https://www.muneris.io",
  "description": "                   A longer description of MunerisAppleIap in Markdown format.\n",
  "frameworks": [
    "Foundation",
    "StoreKit"
  ],
  "requires_arc": false,
  "source": {
    "http": "https://munerissdk:Mdev1234@team-repository-cocoapods.muneris.io/ios/5.0.0/MunerisAppleIapDev-5.0.0.zip"
  },
  "platforms": {
    "ios": "7.0"
  },
  "ios": {
    "preserve_paths": "MunerisAppleIapDev.framework",
    "public_header_files": "MunerisAppleIapDev.framework/Versions/A/Headers/*.h",
    "resources": null,
    "vendored_frameworks": "MunerisAppleIapDev.framework"
  },
  "dependencies": {
    "MunerisVirtualGoodDev": [
      ">= 0"
    ]
  },
  "libraries": null
}
