{
  "name": "MunerisTakeoverSDKDev",
  "version": "5.0.0",
  "summary": "A short description of MunerisTakeover.",
  "license": "REPLACE THIS FIELD BEFORE RELEASE",
  "authors": {
    "Muneris": "support@muneris.io"
  },
  "homepage": "https://www.muneris.io",
  "description": "                   A longer description of MunerisTakeover in Markdown format.\n",
  "frameworks": "Foundation",
  "requires_arc": false,
  "source": {
    "http": "https://munerissdk:Mdev1234@team-repository-cocoapods.muneris.io/ios/5.0.0/MunerisTakeoverSDKDev-5.0.0.zip?cache=ogvpvu37"
  },
  "platforms": {
    "ios": "7.0"
  },
  "ios": {
    "preserve_paths": [
      "MunerisTakeoverSDKDev.framework"
    ],
    "public_header_files": [
      "MunerisTakeoverSDKDev.framework/Versions/A/Headers/*.h"
    ],
    "resources": null,
    "vendored_frameworks": [
      "MunerisTakeoverSDKDev.framework"
    ]
  },
  "dependencies": {
    "MunerisCoreSDKDev": [
      ">= 0"
    ]
  }
}
