{
  "name": "MunerisCore",
  "version": "5.0.0",
  "summary": "A short description of MunerisCore.",
  "license": "REPLACE THIS FIELD BEFORE RELEASE",
  "authors": {
    "Muneris": "support@muneris.io"
  },
  "homepage": "https://www.muneris.io",
  "description": "                   A longer description of MunerisCore in Markdown format.\n",
  "frameworks": [
    "Foundation",
    "UIKit"
  ],
  "libraries": null,
  "requires_arc": false,
  "source": {
    "http": "https://munerissdk:Mdev1234@team-repository-cocoapods.muneris.io/ios/5.0.0/MunerisCore-5.0.0.zip"
  },
  "platforms": {
    "ios": "7.0"
  },
  "ios": {
    "preserve_paths": "MunerisCore.framework",
    "public_header_files": "MunerisCore.framework/Versions/A/Headers/*.h",
    "resources": null,
    "vendored_frameworks": "MunerisCore.framework"
  },
  "dependencies": null
}
