{
  "name": "MunerisAppEventDev",
  "version": "5.0.0",
  "summary": "A short description of MunerisAppEvent.",
  "license": "REPLACE THIS FIELD BEFORE RELEASE",
  "authors": {
    "Muneris": "support@muneris.io"
  },
  "homepage": "https://www.muneris.io",
  "description": "                   A longer description of MunerisAppEvent in Markdown format.\n",
  "frameworks": "Foundation",
  "requires_arc": false,
  "source": {
    "http": "https://munerissdk:Mdev1234@team-repository-cocoapods.muneris.io/ios/5.0.0/MunerisAppEventDev-5.0.0.zip"
  },
  "platforms": {
    "ios": "7.0"
  },
  "ios": {
    "preserve_paths": "MunerisAppEventDev.framework",
    "public_header_files": "MunerisAppEventDev.framework/Versions/A/Headers/*.h",
    "resources": null,
    "vendored_frameworks": "MunerisAppEventDev.framework"
  },
  "dependencies": {
    "MunerisCoreDev": [
      ">= 0"
    ]
  },
  "libraries": null
}
