{
  "name": "MunerisKochavaKit",
  "version": "5.2.0-SNAPSHOT",
  "summary": "The Muneris Kochava Framework.",
  "description": "Muneris is a middleware platform for mobile applications, providing such services as multi-store in-app billing abstractions, ads mediation, game services, 3rd-party SDKs abstractions, etc.",
  "homepage": "https://www.muneris.io",
  "license": {
    "type": "Commercial",
    "text": "BY DOWNLOADING THE MUNERIS SDK FRAMEWORK, YOU ARE AGREEING TO THE TERMS AND CONDITIONS OF THE MUNERIS SDK LICENSE AGREEMENT LOCATED AT https://www.muneris.io/legal/#sdk-license. IF YOU DO NOT AGREE TO THE TERMS AND CONDITIONS OF THE MUNERIS SDK LICENSE AGREEMENT, YOU ARE NOT AUTHORIZED TO AND YOU MAY NOT DOWNLOAD THE MUNERIS SDK FRAMEWORK."
  },
  "authors": {
    "Muneris": "support@muneris.io"
  },
  "platforms": {
    "ios": "7.0"
  },
  "source": {
    "http": "https://munerissdk:Mdev1234@team-repository-cocoapods.muneris.io/ios/5.2.0-SNAPSHOT/MunerisKochavaKit.zip?cache=327l07zv"
  },
  "frameworks": "Foundation",
  "dependencies": {
    "MunerisAppEventKit": [
      "5.2.0-SNAPSHOT"
    ],
    "Kochava": [
      "20150523"
    ]
  },
  "compiler_flags": "-Werror=objc-method-access -DMUNERIS_VERSION=\\\"5.2.0-SNAPSHOT\\\"",
  "ios": {
    "preserve_paths": "MunerisKochavaKit.framework",
    "public_header_files": "MunerisKochavaKit.framework/Versions/A/Headers/*.h",
    "vendored_frameworks": "MunerisKochavaKit.framework"
  }
}