{
  "name": "MunerisTrialpayKitDev",
  "version": "5.0.0-RC1",
  "summary": "The Muneris Trialpay Framework.",
  "description": "Muneris is a middleware platform for mobile applications, providing such services as multi-store in-app billing abstractions, ads mediation, game services, 3rd-party SDKs abstractions, etc.",
  "homepage": "https://www.muneris.io",
  "license": {
    "type": "Commercial",
    "text": "BY DOWNLOADING THE MUNERIS SDK FRAMEWORK, YOU ARE AGREEING TO THE TERMS AND CONDITIONS OF THE MUNERIS SDK LICENSE AGREEMENT LOCATED AT https://www.muneris.io/legal/#sdk-license. IF YOU DO NOT AGREE TO THE TERMS AND CONDITIONS OF THE MUNERIS SDK LICENSE AGREEMENT, YOU ARE NOT AUTHORIZED TO AND YOU MAY NOT DOWNLOAD THE MUNERIS SDK FRAMEWORK."
  },
  "authors": {
    "Muneris": "support@muneris.io"
  },
  "platforms": {
    "ios": "7.0"
  },
  "source": {
    "http": "https://munerissdk:Mdev1234@team-repository-cocoapods.muneris.io/ios/5.0.0-RC1/MunerisTrialpayKitDev.zip?cache=dgb0dkpe"
  },
  "frameworks": "Foundation",
  "dependencies": {
    "MunerisTakeoverKitDev": [
      "5.0.0-RC1"
    ],
    "TrialPay": [
      "2.2014410"
    ]
  },
  "ios": {
    "preserve_paths": "MunerisTrialpayKitDev.framework",
    "public_header_files": "MunerisTrialpayKitDev.framework/Versions/A/Headers/*.h",
    "vendored_frameworks": "MunerisTrialpayKitDev.framework"
  }
}