{
  "name": "MunerisCrashreportSDKDev",
  "version": "5.0.0",
  "summary": "A short description of MunerisCrashreport.",
  "license": "REPLACE THIS FIELD BEFORE RELEASE",
  "authors": {
    "Muneris": "support@muneris.io"
  },
  "homepage": "https://www.muneris.io",
  "description": "                   A longer description of MunerisCrashreport in Markdown format.\n",
  "frameworks": "Foundation",
  "requires_arc": false,
  "source": {
    "http": "https://munerissdk:Mdev1234@team-repository-cocoapods.muneris.io/ios/5.0.0/MunerisCrashreportSDKDev-5.0.0.zip?cache=a8afms6m"
  },
  "platforms": {
    "ios": "7.0"
  },
  "ios": {
    "preserve_paths": [
      "MunerisCrashreportSDKDev.framework"
    ],
    "public_header_files": [
      "MunerisCrashreportSDKDev.framework/Versions/A/Headers/*.h"
    ],
    "resources": null,
    "vendored_frameworks": [
      "MunerisCrashreportSDKDev.framework"
    ]
  },
  "dependencies": {
    "MunerisCoreSDKDev": [
      ">= 0"
    ],
    "PLCrashReporter": [
      "1.2"
    ]
  }
}
